{
  "name": "",
  "css_prefix_text": "icon-",
  "css_use_suffix": false,
  "hinting": true,
  "units_per_em": 1000,
  "ascent": 850,
  "glyphs": [
    {
      "uid": "5889046502908d7496b4590802d343ac",
      "css": "main-03",
      "code": 59398,
      "src": "custom_icons",
      "selected": true,
      "svg": {
        "path": "M969.5 958.5L979 963V1000H21V978C25.5 969.5 32 945 36.5 933 66.5 867 102.5 804 143.5 744 150.5 732.5 147 736.5 159.5 729.5 177 718.5 193 704.5 206 688.5 199 688.5 186 692.5 178.5 688.5S183.5 683.5 159 681.5V673.5L148 669.5 153.5 666.5H150.5C157.5 663.5 160.5 663.5 163.5 656 143 656 155 662 139 656 141.5 650.5 158 638 166.5 626.5 175 617 183.5 607.5 193.5 599 219 574.5 220.5 508 232 473 239 451.5 248 431 259.5 412 262 406 265.5 400.5 270 395.5 282.5 381 299 378.5 302 373.5 305 368.5 307.5 360 311.5 354 315 348 317.5 343.5 321.5 337 327.5 327 335 317.5 343 309 371.5 281.5 380 303 394.5 251 406 211 401 222 394.5 208.5 391 175.5 393.5 141.5 400.5 109 401.5 96 408.5 84.5 419.5 77.5H409C400.5 61.5 399 43 404.5 26 407.5 19.5 413 14 419.5 10.5 429 0 422 4.5 433 0H437.5C437.5 7.5 437.5 5 442 10 456.5 23.5 449 26 455 34.5S458.5 34.5 459.5 42 465.5 61 452 65.5C452 73.5 452 73.5 457.5 78 467.5 85.5 476 93.5 484.5 102.5 497.5 115 505.5 132.5 505.5 151L523 153.5C518.5 145 517 146.5 520 133L512 130V116C504.5 116 507.5 116 502 119.5 500.5 107.5 505 95 515 87.5 519.5 83 518.5 78 522.5 71.5 525.5 67.5 529.5 64.5 533.5 61H522C522 51.5 526.5 48.5 534 45.5L544.5 42C557 36.5 544.5 35 572 26.5 580 24.5 588.5 24.5 596.5 26.5 600 17 605.5 8 612.5 1L616 26C624 31.5 630.5 26 638 30.5 645.5 35 638 30.5 644.5 36.5 647 38 650 39.5 653 40.5 666 46.5 672 53.5 684.5 59.5 697 65.5 717.5 69 719.5 76.5 720 84.5 720 92.5 719.5 100.5 719.5 110.5 712.5 110 703 107.5 703 112 703 119.5 691 120 679 120.5 678 116.5 671.5 112 657.5 106.5 642 107.5 629 114.5 632.5 128 643.5 135.5 650 148 661.5 169 671 199.5 674.5 207 681 215 685.5 224 689 234 690.5 237 692 240.5 694 243.5 704.5 264.5 687 272.5 734 265.5 752 263 748.5 265.5 758.5 274 783 263 805.5 305.5 830 318.5 854.5 331.5 841 328 847 361.5 847 374.5 844.5 373.5 839 380.5S832 392.5 825 394.5C819.5 384.5 815.5 374 813 363L819.5 355C820.5 352 823 350 825.5 349 825.5 349 821 349 816 344S813 340.5 810.5 337C800 320 783 307.5 763.5 302.5 764.5 315 767.5 327 773 338 779 353 784 355 773 370 762 385 768 395 758.5 400 749.5 405.5 740.5 411 731 415.5 727 404.5 727 392 731 381L741 373.5C746.5 369 747 373.5 753.5 369 753.5 366 753.5 369 753.5 369S750 351.5 749 341C751.5 330 750.5 319 746.5 308.5 742 308.5 730.5 316.5 723.5 320 716.5 323 706 324.5 698 328.5 676.5 339 682 345 649.5 348.5 650.5 355 653.5 360.5 658 365 662 369.5 666.5 373.5 671 377.5 684 385 705 382 713 387.5 713 400 700 401.5 688 402 675.5 402.5 664.5 407.5 656.5 407.5 648 397 656.5 384.5 632.5 364.5 622.5 356 617.5 364.5 612 370 595.5 389 574.5 403 551 411.5L499.5 426C514 432 513.5 441 509.5 459 501.5 486.5 487 511.5 467.5 532 459 539.5 458.5 552.5 466 561 466.5 561.5 467 562 467.5 562.5 483.5 575 500.5 562.5 519 558.5 548 554.5 577.5 553.5 606.5 555H786.5C816.5 555 842.5 545 846 586.5 846 612.5 835.5 609 836 665H830.5C820.5 666.5 811.5 670 802.5 675 781.5 689 759.5 698.5 778 726.5L796 752.5C899 828.5 913 791 937 855.5 963 860.5 985.5 886.5 967 958.5L969.5 958.5ZM400 583C407.5 592.5 414 583 440.5 579 428.5 568.5 397 569.5 412 544.5 424 530 431 512 431 493 413.5 493 420.5 493 410 501S361.5 518 376 548C382.5 560 390 571.5 399.5 581.5L400 583ZM362.5 471.5C347.5 463.5 342 468.5 330 458 318 447.5 315.5 442 308.5 432.5 299 438 299 447 295.5 458.5 292 470.5 284.5 472 281.5 482.5 275.5 524 265.5 565 251.5 604.5 242 622 234 640.5 227 659 231.5 656 237.5 651.5 242 647.5 283 624 327.5 606.5 374 596 371 590.5 368 585 363.5 580 353.5 564.5 342.5 549.5 330 535.5 311.5 514.5 356 514.5 362.5 471.5Z",
        "width": 1000
      },
      "search": [
        "main-03"
      ]
    },
    {
      "uid": "77ea4c411ad5646ede02bd68fad96f34",
      "css": "main-02",
      "code": 59397,
      "src": "custom_icons",
      "selected": true,
      "svg": {
        "path": "M513 440.5C504 440.5 496.5 440.5 487 440.5 487 445.5 487 450 487 455 487 500 487.5 544.5 487 589.5 486.5 623 457 642.5 427 631 412 625 402.5 614 400.5 597.5 400 591.5 400 586 400 580 400 480 400 379.5 400 279.5 400 271 397.5 264.5 391.5 258.5 356 223.5 321 188 285.5 152.5 273.5 140.5 270.5 122.5 277.5 108.5 284 95.5 300 85.5 315 88.5 324.5 90.5 334.5 96 342 103 368.5 128 394 154 419.5 180.5 425 186.5 430.5 189 439 189 480 188.5 521 189 562 188.5 568 188.5 575.5 185 580 181 607 155 633 128.5 659.5 102 674 88 690 84.5 705 92 728.5 103.5 733.5 133.5 714 153.5 681 187.5 647.5 221 613.5 254 603.5 263.5 600 273 600 286.5 600.5 385.5 600.5 484.5 600.5 583 600.5 596.5 599.5 610 589 620.5 575.5 634 559.5 639 541 631.5 523 624.5 513.5 611 513.5 592 513 546.5 513.5 501.5 513 456 513 451 513 446 513 440.5ZM500 176C549 176 588 136 587.5 87 587 38 547-1 499 0 450.5 1 412 40 412.5 87.5 413 136.5 452 175.5 500 176ZM829 762.5H750.5 673.5V688C673.5 668.5 657.5 653 638.5 653H361.5C342 653 326.5 669 326.5 688V809.5H291.5 233.5 171C151.5 809.5 136 825.5 136 844.5V965C136 984.5 152 1000 171 1000H234 291.5 362 476 523 639 662.5 751 829.5C849 1000 864.5 984 864.5 965V798C864.5 778.5 848.5 762.5 829 762.5Z",
        "width": 1000
      },
      "search": [
        "main-02"
      ]
    },
    {
      "uid": "48c5edd75dcb063f4a098d028b3f0550",
      "css": "main-01",
      "code": 59396,
      "src": "custom_icons",
      "selected": true,
      "svg": {
        "path": "M153.5 269C117.5 257.5 83 247 48 236 36.5 232 25 228.5 13.5 225 6 223-2 219.5 0.5 210.5 2 205 8.5 198 14 196.5 98 169.5 182.5 143 266.5 116.5 339.5 93 412.5 70 485.5 48 494.5 45.5 506 45 515 48 670.5 96.5 826 145.5 981 194 985.5 195.5 991 196 993.5 199 997 202.5 1000.5 209 999.5 212.5 998 217 993 222.5 988 224 944.5 238.5 901 252 857 265.5 743 301.5 628.5 337.5 514 373 505.5 375.5 494.5 376 486 373.5 400 347 313.5 319.5 227.5 292 214.5 288 207 290 199.5 301 177.5 333.5 169.5 370.5 167.5 408.5 167.5 412 171 416.5 174 419.5 199.5 442 200.5 477 176 501.5 172 505.5 169.5 512.5 170.5 518 177 571 184 623.5 191 676.5 191.5 679 192 681 192 683.5 195 708 192 711.5 166.5 711.5 145.5 711.5 125 711.5 104 711.5 85.5 711.5 81.5 707.5 84 689 90.5 636.5 97.5 584.5 105 532 107 518 107.5 506.5 95 495 75 476 80 438 102.5 419.5 106.5 416 111 411.5 111.5 407 115 358 125.5 311.5 153.5 269ZM756.5 355.5C682.5 379 608.5 402 534.5 426.5 511.5 434 489.5 434.5 466.5 427 393.5 403 319.5 380 246 356.5 241 355 236 353.5 229.5 352 227 395.5 226 436.5 222.5 477.5 220 506.5 232 526.5 254.5 542 288 565.5 326.5 578 366 586 454.5 604.5 543.5 604.5 632 586.5 674 578 714.5 565 749.5 539 764.5 528 778 514.5 777 495 776 448 773 401 771 352.5 765.5 353.5 761 354.5 756.5 355.5ZM436.5 645H390.5L254 832.5V864.5H384.5V948.5H436.5V864.5H484V820H436.5V645ZM384.5 753.5V819.5H333.5L306 823 327.5 806.5 372 748.5 386.5 717.5H388L384.5 753.5ZM691.5 679C674.5 653.5 648 641 612 641 578 641 552 654 534 679.5 516 705 507 744.5 507 797 507 847.5 515.5 886 532.5 913.5 549.5 940.5 576 954 611.5 954 645.5 954 671.5 941 689.5 915.5 707.5 889.5 717 850.5 717 797 717 744 708.5 704.5 691.5 679ZM649.5 880.5C641.5 898 629 906.5 612.5 906.5 595 906.5 582.5 897 575 878 567.5 859 563.5 832 563.5 797 563.5 760 567.5 732.5 575 715 582.5 697 595 688.5 612 688.5 630 688.5 643 698 650.5 717 658 736 661.5 762.5 661.5 797.5 661 835.5 657 863 649.5 880.5Z",
        "width": 1000
      },
      "search": [
        "main-01"
      ]
    },
    {
      "uid": "d79ba89f921df7d2c29d1b3682a4d4f3",
      "css": "login",
      "code": 59392,
      "src": "custom_icons",
      "selected": true,
      "svg": {
        "path": "M956 500C956 776 732 1000 456 1000V912C684 912 868 727 868 500 868 272 684 88 456 88V0C732 0 956 224 956 500ZM456 654L798 500 456 346V432H44V559H456V654Z",
        "width": 1000
      },
      "search": [
        "login"
      ]
    },
    {
      "uid": "ab118d0860185a13ecd25e5664be1ad1",
      "css": "profile",
      "code": 59394,
      "src": "custom_icons",
      "selected": true,
      "svg": {
        "path": "M734 592C783 537 812 464 812 385 812 212 673 72 500 72 328 72 188 212 188 385 188 464 217 537 266 592L0 858C19 883 40 906 62 928L338 652C385 681 441 697 500 697 560 697 615 681 662 652L938 928C960 906 981 883 1000 858L734 592ZM594 583C565 597 534 604 500 604S435 597 406 583C378 570 352 550 332 526 300 488 281 439 281 385 281 264 379 166 500 166 621 166 719 264 719 385 719 439 700 488 668 526 648 550 622 570 594 583Z",
        "width": 1000
      },
      "search": [
        "profile"
      ]
    },
    {
      "uid": "cc6b43790a105ca7abbfbf0f97996dc1",
      "css": "close",
      "code": 59393,
      "src": "custom_icons",
      "selected": true,
      "svg": {
        "path": "M597 500L902 805 806 902 500 596 195 902 98 805 404 500 98 194 195 98 500 403 806 98 902 194 597 500Z",
        "width": 1000
      },
      "search": [
        "close"
      ]
    },
    {
      "uid": "942723b35fdbe1514c4167fbccb425b0",
      "css": "navicon",
      "code": 59395,
      "src": "custom_icons",
      "selected": true,
      "svg": {
        "path": "M0 159H1000V295H0V159ZM0 568H1000V432H0V568ZM0 841H1000V704H0V841Z",
        "width": 1000
      },
      "search": [
        "navicon"
      ]
    }
  ]
}